<?xml version="1.0" encoding="UTF-8"?>
<svg width="64" height="64" version="1.1" viewBox="0 0 16.933 16.933" xmlns="http://www.w3.org/2000/svg" xmlns:cc="http://creativecommons.org/ns#" xmlns:dc="http://purl.org/dc/elements/1.1/" xmlns:rdf="http://www.w3.org/1999/02/22-rdf-syntax-ns#">
 <metadata>
  <rdf:RDF>
   <cc:Work rdf:about="">
    <dc:format>image/svg+xml</dc:format>
    <dc:type rdf:resource="http://purl.org/dc/dcmitype/StillImage"/>
    <dc:title/>
   </cc:Work>
  </rdf:RDF>
 </metadata>
 <rect x="-4.2529e-7" y="-4.2529e-7" width="16.933" height="16.933" fill="#37474f" stroke-linecap="round" stroke-width="2.5078"/>
 <g fill="none" stroke="#455a64" stroke-width=".52917">
  <path d="m8.098-7.3895c0.79244 0.79245 2.3815 0.28637 3.1739 1.0788 0.79244 0.79245 0.28637 2.3815 1.0788 3.1739 0.79244 0.79245 2.3815 0.28637 3.1739 1.0788 0.79245 0.79244 0.28636 2.3814 1.0788 3.1739 0.79245 0.79245 2.3814 0.28636 3.1739 1.0788s0.28636 2.3814 1.0788 3.1739c0.79245 0.79244 2.3815 0.28637 3.1739 1.0788 0.79244 0.79244 0.28636 2.3814 1.0788 3.1739"/>
  <path d="m3.8453-3.1368c0.79245 0.79245 2.3815 0.28637 3.1739 1.0788 0.79244 0.79244 0.28637 2.3815 1.0788 3.1739 0.79245 0.79245 2.3815 0.28637 3.1739 1.0788 0.79244 0.79244 0.28636 2.3814 1.0788 3.1739 0.79245 0.79245 2.3814 0.28636 3.1739 1.0788 0.79245 0.79245 0.28636 2.3814 1.0788 3.1739 0.79244 0.79245 2.3815 0.28637 3.1739 1.0788 0.79245 0.79244 0.28636 2.3814 1.0788 3.1739"/>
  <path d="m-0.40742 1.1159c0.79245 0.79245 2.3815 0.28637 3.1739 1.0788 0.79244 0.79245 0.28637 2.3815 1.0788 3.1739 0.79245 0.79245 2.3815 0.28637 3.1739 1.0788 0.79245 0.79245 0.28636 2.3814 1.0788 3.1739 0.79244 0.79245 2.3814 0.28636 3.1739 1.0788 0.79245 0.79245 0.28636 2.3814 1.0788 3.1739 0.79245 0.79245 2.3815 0.28637 3.1739 1.0788s0.28636 2.3814 1.0788 3.1739"/>
  <path d="m-4.6601 5.3686c0.79245 0.79244 2.3815 0.28637 3.1739 1.0788 0.79245 0.79244 0.28637 2.3815 1.0788 3.1739 0.79245 0.79245 2.3815 0.28637 3.1739 1.0788 0.79245 0.79245 0.28636 2.3814 1.0788 3.1739 0.79245 0.79245 2.3814 0.28636 3.1739 1.0788 0.79245 0.79244 0.28636 2.3814 1.0788 3.1739 0.79244 0.79244 2.3815 0.28637 3.1739 1.0788 0.79244 0.79244 0.28636 2.3814 1.0788 3.1739"/>
 </g>
</svg>
