<?xml version="1.0" standalone="no"?>
<!DOCTYPE svg PUBLIC "-//W3C//DTD SVG 20010904//EN"
 "http://www.w3.org/TR/2001/REC-SVG-20010904/DTD/svg10.dtd">
<svg version="1.0" xmlns="http://www.w3.org/2000/svg"
 width="302.000000pt" height="302.000000pt" viewBox="0 0 302.000000 302.000000"
 preserveAspectRatio="xMidYMid meet">
<metadata>
Created by potrace 1.14, written by Peter Selinger 2001-2017
</metadata>
<g transform="translate(0.000000,302.000000) scale(0.100000,-0.100000)"
fill="#000000" stroke="none">
<path d="M1379 2999 c-5 -3 -28 -6 -51 -7 -22 -1 -47 -7 -54 -13 -11 -9 -14
-8 -14 0 0 7 -5 9 -12 5 -11 -7 -45 -14 -80 -17 -10 -1 -18 -4 -18 -8 0 -3
-18 -9 -40 -13 -22 -3 -40 -12 -40 -18 0 -9 -3 -9 -12 0 -9 9 -15 7 -25 -6 -8
-9 -11 -11 -8 -3 5 8 -3 6 -21 -5 -15 -11 -31 -18 -34 -18 -3 1 -14 -2 -25 -6
-11 -4 -24 -8 -30 -10 -5 -1 -17 -8 -26 -16 -9 -8 -19 -11 -22 -7 -4 3 -7 1
-7 -6 0 -7 -5 -9 -10 -6 -6 3 -13 0 -16 -9 -3 -8 -12 -12 -20 -9 -7 3 -16 -2
-20 -10 -3 -9 -12 -13 -20 -10 -8 3 -14 0 -14 -7 0 -6 -4 -9 -9 -6 -5 3 -12
-1 -15 -10 -3 -8 -10 -13 -15 -10 -5 3 -12 -1 -15 -10 -3 -8 -10 -12 -16 -9
-5 3 -10 1 -10 -5 0 -6 -4 -8 -10 -5 -5 3 -10 -1 -10 -10 0 -9 -4 -14 -9 -10
-5 3 -16 -4 -24 -15 -7 -11 -17 -17 -20 -13 -4 3 -7 1 -7 -5 0 -6 -9 -14 -20
-17 -11 -3 -20 -13 -20 -20 0 -8 -6 -12 -14 -9 -9 3 -17 -3 -21 -15 -3 -11
-15 -23 -26 -26 -10 -4 -17 -9 -15 -13 2 -4 -2 -13 -10 -20 -8 -7 -14 -11 -14
-9 0 8 -81 -76 -83 -86 -1 -5 -13 -22 -27 -37 -14 -16 -35 -40 -47 -53 -12
-14 -19 -28 -16 -31 4 -3 2 -6 -4 -6 -5 0 -20 -20 -33 -45 -12 -24 -27 -42
-33 -38 -6 4 -8 0 -4 -10 3 -8 -1 -21 -8 -27 -8 -7 -12 -16 -9 -21 3 -5 1 -9
-5 -9 -6 0 -8 -8 -4 -17 3 -10 2 -15 -2 -10 -8 7 -34 -39 -41 -72 -1 -8 -9
-18 -16 -22 -7 -5 -10 -9 -6 -9 4 0 0 -16 -8 -35 -8 -19 -11 -35 -7 -35 5 0 2
-4 -4 -8 -7 -5 -14 -20 -15 -35 -1 -15 -7 -27 -12 -27 -5 0 -7 -3 -3 -6 3 -3
1 -18 -5 -33 -5 -14 -12 -37 -13 -51 -2 -14 -6 -36 -9 -50 -14 -60 -18 -86
-17 -107 0 -13 -3 -23 -7 -23 -5 0 -9 -7 -9 -15 0 -8 3 -15 7 -15 8 0 5 -44
-5 -59 -3 -6 -1 -11 5 -11 7 0 8 -6 1 -18 -6 -10 -6 -24 -1 -32 5 -8 6 -18 3
-23 -9 -14 -11 -57 -3 -57 10 0 7 -26 -3 -36 -4 -4 -2 -13 4 -21 9 -10 8 -13
-2 -13 -12 0 -12 -2 0 -9 8 -5 12 -19 9 -35 -3 -14 -1 -27 5 -29 5 -1 11 -23
13 -47 3 -42 11 -85 14 -85 1 0 3 -8 6 -17 7 -31 11 -42 18 -60 4 -9 9 -22 10
-30 15 -63 20 -78 27 -78 5 0 9 -9 9 -20 0 -11 4 -20 10 -20 5 0 7 -7 4 -15
-4 -8 -1 -15 6 -15 6 0 8 -4 5 -10 -3 -5 -1 -10 4 -10 6 0 11 -7 11 -15 0 -14
18 -53 30 -65 3 -3 12 -18 20 -35 8 -16 18 -32 21 -35 3 -3 13 -18 22 -35 8
-16 27 -43 41 -58 15 -16 24 -32 21 -37 -3 -5 0 -12 6 -16 8 -4 9 -3 5 4 -18
29 3 6 49 -53 28 -35 56 -65 63 -65 7 0 10 -4 7 -10 -3 -5 -2 -10 3 -10 5 0
30 -20 56 -45 25 -25 46 -43 46 -40 0 3 6 0 14 -7 8 -7 11 -17 8 -23 -3 -5 -2
-7 3 -3 7 7 76 -38 83 -55 2 -4 8 -5 13 -1 5 3 12 -2 15 -10 3 -9 10 -13 15
-10 5 3 12 -2 15 -10 3 -9 10 -13 15 -10 5 3 12 -2 15 -10 3 -9 12 -16 20 -16
14 0 54 -19 64 -31 8 -8 74 -34 83 -31 4 1 7 -2 7 -8 0 -5 9 -10 19 -10 11 0
21 -4 23 -9 2 -6 15 -11 30 -13 15 -2 30 -7 34 -11 4 -4 18 -7 31 -7 13 0 23
-4 23 -10 0 -5 13 -10 28 -10 15 0 33 -5 40 -12 7 -7 12 -9 12 -5 0 4 9 3 20
-3 15 -8 20 -8 20 2 0 9 3 9 10 -2 5 -8 12 -12 15 -8 4 4 24 0 46 -7 24 -9 39
-10 39 -4 0 6 4 8 8 5 5 -3 26 -6 46 -8 21 -1 40 -6 42 -10 3 -4 14 -4 24 2
13 7 21 7 25 0 5 -8 11 -7 21 1 10 8 14 8 14 0 0 -7 8 -8 25 -1 17 7 25 6 25
-1 0 -8 4 -8 13 0 10 8 17 7 25 -1 8 -8 15 -8 27 2 12 10 15 10 15 -1 0 -9 3
-10 8 -4 4 6 27 12 51 14 24 1 54 6 65 10 12 5 27 6 34 4 6 -3 12 1 12 9 0 10
3 9 10 -2 6 -9 10 -10 10 -3 0 6 9 10 20 8 11 -2 22 0 25 4 2 5 25 12 50 15
29 5 43 11 39 18 -5 7 -2 8 6 3 7 -4 16 -2 21 6 6 11 9 11 9 1 0 -9 7 -8 25 4
14 9 25 12 25 8 0 -5 4 -4 8 3 4 6 16 13 27 15 11 1 22 5 25 8 3 3 16 11 29
18 19 11 22 11 16 0 -3 -7 0 -5 8 4 8 10 17 15 20 11 4 -3 7 -1 7 5 0 7 9 12
20 12 11 0 20 4 20 9 0 8 26 19 43 17 5 -1 13 7 18 16 6 10 16 18 23 18 8 0
19 7 26 15 7 8 17 12 23 8 5 -3 7 -1 4 4 -6 10 19 28 35 25 4 -1 10 8 13 20 6
16 9 18 16 7 6 -10 9 -10 9 -2 0 7 19 26 42 43 22 16 37 30 33 30 -4 0 3 9 16
20 54 45 70 60 66 60 -3 0 15 20 39 45 24 24 44 47 44 50 0 3 12 19 28 36 15
17 26 35 24 40 -1 5 5 9 14 9 8 0 13 4 10 8 -3 5 3 18 13 29 10 11 22 29 25
41 4 12 12 22 17 22 6 0 7 4 4 10 -3 6 -1 10 5 10 6 0 8 5 5 10 -3 6 -1 10 5
10 6 0 9 4 6 9 -3 5 1 14 9 21 8 7 12 16 9 21 -3 5 0 9 6 9 6 0 8 4 5 10 -3 6
-1 10 6 10 7 0 9 3 6 6 -4 4 2 19 13 34 11 15 17 30 14 32 -3 3 4 21 14 39 10
19 18 42 16 52 -1 9 1 17 5 17 4 0 7 10 8 22 1 11 6 24 10 27 4 3 8 17 8 31 0
14 3 30 7 35 9 13 17 56 24 120 2 28 7 57 11 65 10 24 10 34 0 48 -6 8 -5 12
2 12 7 0 9 5 5 12 -10 16 -13 48 -4 48 8 0 6 37 -3 46 -4 4 -2 13 4 21 9 10 8
13 -1 13 -10 0 -10 3 -1 14 9 10 9 16 1 21 -8 5 -8 11 -1 19 6 7 8 16 4 20 -7
7 -9 22 -14 94 -1 23 -5 42 -9 42 -3 0 -7 17 -8 37 -2 20 -8 43 -14 50 -6 7
-7 13 -2 13 5 0 2 5 -6 10 -9 6 -10 10 -3 10 9 0 6 14 -8 47 -11 25 -17 53
-15 60 3 8 1 11 -4 8 -6 -3 -10 3 -10 14 0 11 -7 26 -15 34 -10 11 -11 17 -3
19 7 3 4 12 -10 26 -12 12 -21 23 -21 25 4 6 -13 47 -20 47 -4 0 -8 10 -8 22
-1 13 -7 24 -13 26 -5 2 -10 12 -10 23 0 10 -4 19 -10 19 -5 0 -10 5 -10 11 0
7 -8 18 -17 26 -10 8 -12 11 -4 7 8 -4 -2 14 -22 41 -20 26 -37 52 -37 57 0 5
-4 6 -10 3 -5 -3 -10 0 -10 8 0 7 -18 31 -40 53 -22 21 -40 45 -40 53 0 8 -2
12 -6 9 -6 -7 -61 44 -57 54 2 4 -5 9 -15 12 -10 4 -25 17 -32 31 -7 13 -16
24 -19 23 -17 -2 -34 3 -28 8 5 6 -76 74 -89 74 -2 0 -14 9 -26 20 -12 11 -28
20 -35 20 -7 0 -13 4 -13 9 0 5 -13 14 -30 21 -16 7 -30 16 -30 20 0 5 -8 7
-17 6 -10 -2 -26 5 -37 15 -10 10 -23 16 -28 13 -4 -3 -8 0 -8 5 0 6 -9 11
-19 11 -11 0 -23 5 -26 10 -3 6 -15 10 -26 10 -10 0 -19 4 -19 8 0 5 -22 14
-50 21 -27 7 -50 17 -50 23 0 6 -6 5 -15 -2 -12 -10 -15 -10 -15 0 0 8 -3 10
-7 7 -3 -4 -12 -2 -20 5 -13 10 -45 17 -100 21 -13 0 -23 6 -23 12 0 5 -5 3
-10 -5 -7 -12 -10 -12 -10 -1 0 7 -6 11 -15 8 -8 -4 -17 -2 -20 2 -3 5 -14 7
-24 4 -10 -3 -27 0 -38 5 -12 7 -25 7 -36 1 -12 -7 -17 -6 -17 1 0 6 -5 8 -12
3 -18 -11 -38 -13 -38 -3 0 8 -43 5 -59 -5 -6 -3 -11 -1 -11 5 0 6 -5 8 -12 3
-17 -10 -38 -13 -38 -4 0 8 -37 9 -51 0z"/>
</g>
</svg>
